; Engine configuration file.
; It's best edited using the editor UI and not directly,
; since the parameters that go here are not all obvious.
;
; Format:
;   [section] ; section goes between []
;   param=value ; assign values to parameters

config_version=5

[application]

config/name="Plutus"
run/main_scene="res://app.tscn"
config/features=PackedStringArray("4.0", "GL Compatibility")
config/icon="res://icon.svg"

[autoload]

Groups="*res://util/groups.gd"

[display]

window/size/viewport_width=412
window/size/viewport_height=915
window/size/always_on_top=true

[input_devices]

pointing/emulate_touch_from_mouse=true

[rendering]

renderer/rendering_method="gl_compatibility"
