[gd_scene load_steps=2 format=3 uid="uid://dbvemmhgyb3kr"]

[ext_resource type="Script" path="res://frontend/month_card/month_transaction_entry/month_transcation_entry.gd" id="1_x6x56"]

[node name="MonthTranscationEntry" type="HBoxContainer"]
anchors_preset = 10
anchor_right = 1.0
offset_bottom = 26.0
grow_horizontal = 2
script = ExtResource("1_x6x56")

[node name="TransactionNameLabel" type="Label" parent="."]
modulate = Color(1, 1, 1, 0.54902)
layout_mode = 2
text = "Sorvete chiquinho"

[node name="InstallmentNumberLabel" type="Label" parent="."]
modulate = Color(1, 1, 1, 0.54902)
layout_mode = 2
size_flags_horizontal = 3
text = "(1/3)"

[node name="CostLabel" type="Label" parent="."]
modulate = Color(1, 1, 1, 0.54902)
layout_mode = 2
text = "R$ 18.32"
