[gd_scene load_steps=2 format=3 uid="uid://b2bggjyljc7bp"]

[ext_resource type="Script" path="res://frontend/screen/screen.gd" id="1_hq0ac"]

[node name="Screen" type="VBoxContainer"]
anchors_preset = 15
anchor_right = 1.0
anchor_bottom = 1.0
grow_horizontal = 2
grow_vertical = 2
script = ExtResource("1_hq0ac")
metadata/_edit_use_anchors_ = true

[node name="Header" type="Control" parent="."]
layout_mode = 2
size_flags_vertical = 3

[node name="Content" type="Control" parent="."]
layout_mode = 2
size_flags_vertical = 3
size_flags_stretch_ratio = 10.0
